source	selection	exclusion_fraction	class
images.MAX_189x1_2_cell_C1	germplasm	0.145220014563612	aa02c
images.MAX_189x1_2_cell_C2	germplasm	0.18234738046669	aa02c
images.MAX_189x1_2_cell_C1	rnp	0.4115611261809	aa02c
images.MAX_189x1_2_cell_C2	rnp	0.488619736628191	aa02c
images.MAX_189x_2_cell_C1	germplasm	0.0516502897455278	aa02c
images.MAX_189x_2_cell_C2	germplasm	0.149378531073446	aa02c
images.MAX_189x_2_cell_C1	rnp	0.413414634146341	aa02c
images.MAX_189x_2_cell_C2	rnp	0.478182256509161	aa02c
images.MAX_late_2cel_furrow189x_C1	germplasm	0.353750820982895	aa02c
images.MAX_late_2cel_furrow189x_C2	germplasm	0.171511202225802	aa02c
images.MAX_late_2cel_furrow189x_C1	rnp	0.335570469798658	aa02c
images.MAX_late_2cel_furrow189x_C2	rnp	0.488887489768935	aa02c
