C1-MAX_late\ 4cel\ 189x.tif	MAX_late_4cel_189x_C1.tif
C1-MAX_late\ 4cel\ 2nd\ furrow\ 189x.tif	MAX_late_4cel_2nd_furrow_189x_C1.tif
C2-MAX_late\ 4cel\ 189x.tif	MAX_late_4cel_189x_C2.tif
C2-MAX_late\ 4cel\ 2nd\ furrow\ 189x.tif	MAX_late_4cel_2nd_furrow_189x_C2.tif
