14.39172987804878	30.14117012195122	5.13173438485804
15.930468292682928	29.869628048780488	7.04526246056782
20.63719756097561	38.64948841463415	7.87155867507886
21.36130975609756	3.5300469512195125	4.6533523659306
21.54233780487805	3.5300469512195125	4.8273094637224
24.891356707317073	7.7842060975609755	12.5684003154574
25.434440853658536	8.055748170731707	12.046529022082
26.520609146341464	23.89570243902439	9.26321545741325
28.2403756097561	41.36490914634147	5.17522365930599
29.236029878048782	22.71902012195122	8.39342996845426
29.598085975609756	22.26645	8.26296214511041
29.055001829268292	23.62416036585366	9.1327476340694
29.6886	22.356964024390244	8.21947287066246
29.869628048780488	11.766823170731708	8.17598359621451
29.779114024390246	21.72336585365854	10.2199794952681
30.77476829268293	10.771168902439024	7.87155867507886
30.684254268292683	34.12378719512195	3.26169558359621
31.49888048780488	35.843553658536585	4.6533523659306
40.09771280487805	5.702383536585366	11.1332542586751
40.36925487804878	6.335981707317074	12.3509539432177
44.08032987804878	28.96448780487805	8.39342996845426
44.44238597560976	29.055001829268292	8.48040851735016
44.44238597560976	29.6886	7.91504794952681
5.430841463414635	16.2925243902439	7.17573028391167
5.702383536585366	43.80878780487805	5.69709495268139
14.572757926829269	30.231684146341465	5.34918075709779
14.934814024390244	28.602431707317074	6.30594479495268
15.74944024390244	29.41705792682927	5.87105205047319
15.839954268292683	30.050656097560978	7.26270883280757
19.46051524390244	19.279487195121952	9.3067047318612
20.63719756097561	38.740002439024394	8.30645141955836
26.70163719512195	23.80518841463415	8.9587905362776
28.2403756097561	41.54593719512195	5.56662712933754
28.873973780487805	21.81387987804878	9.3067047318612
28.96448780487805	23.714674390243903	9.26321545741325
29.6886	11.857337195121952	7.82806940063091
30.593740243902438	10.86168292682927	7.43666593059937
40.27874085365854	6.335981707317074	12.3074646687697
41.90799329268293	6.245467682926829	11.2637220820189
42.089021341463415	13.486589634146341	8.61087634069401
43.62775975609756	3.5300469512195125	10.5244044164038
44.44238597560976	29.960142073170733	8.21947287066246
